…
La frecuencia de cada palabra se puede obtener y presentar con el código de abajo. 
La primera sentencia crea la tabla de frecuencias, 
la tercera la transforma en el tipo `tibble`, creando la columna recuento, 
y ordena la tabla de forma descendente, de mayor a menor frecuencia. 


```r
library("tidyverse")
tabla <- table(palabras[[1]])
( tabla <- tibble(palabra = names(tabla), 
                  recuento = as.numeric(tabla)) |>
    arrange(desc(recuento)) ) 
#> # A tibble: 390 × 2
#>    palabra recuento
#>    <chr>      <dbl>
#>  1 de            43
#>  2 y             41
#>  3 la            35
#>  4 a             31
#>  5 los           26
#>  6 en            22
#>  7 que           20
#>  8 el            17
#>  9 al            14
#> 10 para          14
#> # … with 380 more rows
```
…
