Capítulo 38 Minería de textos | Ciencia de datos con R
…
>>>>>>> branch 'main' of https://github.com/cdr-book/cdr-book.github.io.git
Con la última sentencia se obtiene la longitud de la Declaración, el número de palabras utilizadas: 922.

La frecuencia de cada palabra se pueden obtener y presentar con el código de abajo.
La primera sentencia crea la tabla de frecuencias,
la tercera la transforma en el tipo tibble, creando la columna recuento,
y ordena la tabla de forma descendente, de mayor a menor frecuencia.

<<<<<<< HEAD

tabla <- table(palabras[[1]])
(tabla <- tabla |>
  tibble(palabra = names(tabla), recuento = as.numeric(tabla)) |>
  arrange(desc(recuento)))
#> # A tibble: 390 × 3
#>    tabla       palabra recuento
#>    <table[1d]> <chr>      <dbl>
#>  1 43          de            43
#>  2 41          y             41
#>  3 35          la            35
#>  4 31          a             31
#>  5 26          los           26
#>  6 22          en            22
#>  7 20          que           20
#>  8 17          el            17
#>  9 14          al            14
#> 10 14          para          14
#> # … with 380 more rows

=======

tabla <- table(palabras[[1]])
(tabla <- tabla |>
  tibble(palabra = names(tabla), recuento = as.numeric(tabla)) |>
  arrange(desc(recuento)))
#> # A tibble: 390 × 3
#>    tabla       palabra recuento
#>    <table[1d]> <chr>      <dbl>
#>  1 43          de            43
#>  2 41          y             41
#>  3 35          la            35
#>  4 31          a             31
#>  5 26          los           26
#>  6 22          en            22
#>  7 20          que           20
#>  8 17          el            17
#>  9 14          al            14
#> 10 14          para          14
#> # … with 380 more rows
…
